…
Generally, you won’t create these `class_pred` objects directly, but
will instead create them indirectly through converting class
probabilities into class predictions with
[`make_class_pred()`](https://probably.tidymodels.org/dev/reference/make_class_pred.md)
and
[`make_two_class_pred()`](https://probably.tidymodels.org/dev/reference/make_class_pred.md).

``` r
library(dplyr)
data("segment_logistic")
segment_logistic
#> # A tibble: 1,010 × 3
#>    .pred_poor .pred_good Class
#>  *      <dbl>      <dbl> <fct>
#>  1    0.986      0.0142  poor 
#>  2    0.897      0.103   poor 
#>  3    0.118      0.882   good 
#>  4    0.102      0.898   good 
#>  5    0.991      0.00914 poor 
#>  6    0.633      0.367   good 
#>  7    0.770      0.230   good 
#>  8    0.00842    0.992   good 
#>  9    0.995      0.00458 poor 
#> 10    0.765      0.235   poor 
#> # ℹ 1,000 more rows

# Convert probabilities into predictions
# > 0.5 = good
# < 0.5 = poor
segment_logistic_thresh <- segment_logistic |>
  mutate(
    .pred = make_two_class_pred(
      estimate = .pred_good,
      levels = levels(Class),
      threshold = 0.5
    )
  )

segment_logistic_thresh
#> # A tibble: 1,010 × 4
#>    .pred_poor .pred_good Class      .pred
#>         <dbl>      <dbl> <fct> <clss_prd>
#>  1    0.986      0.0142  poor        poor
#>  2    0.897      0.103   poor        poor
#>  3    0.118      0.882   good        good
#>  4    0.102      0.898   good        good
#>  5    0.991      0.00914 poor        poor
#>  6    0.633      0.367   good        poor
#>  7    0.770      0.230   good        poor
#>  8    0.00842    0.992   good        good
#>  9    0.995      0.00458 poor        poor
#> 10    0.765      0.235   poor        poor
#> # ℹ 1,000 more rows
```
…
