…
species_probs |>
  mutate(
    .class_pred = make_class_pred(
      .pred_bobcat, .pred_coyote, .pred_gray_fox,
      levels = levels(Species),
      min_prob = .5
    )
  )
#> # A tibble: 110 × 5
#>    Species  .pred_bobcat .pred_coyote .pred_gray_fox .class_pred
#>    <fct>           <dbl>        <dbl>          <dbl>  <clss_prd>
#>  1 gray_fox       0.0976       0.0530         0.849     gray_fox
#>  2 gray_fox       0.155        0.139          0.706     gray_fox
#>  3 bobcat         0.501        0.0880         0.411       bobcat
#>  4 gray_fox       0.256        0              0.744     gray_fox
#>  5 gray_fox       0.463        0.287          0.250         [EQ]
#>  6 bobcat         0.811        0              0.189       bobcat
#>  7 bobcat         0.911        0.0888         0           bobcat
#>  8 bobcat         0.898        0.0517         0.0500      bobcat
#>  9 bobcat         0.771        0.229          0           bobcat
#> 10 bobcat         0.623        0.325          0.0517      bobcat
#> # ℹ 100 more rows

lvls <- levels(species_probs$Species)

append_class_pred(
  .data = species_probs,
  contains(".pred_"),
  levels = lvls,
  min_prob = .5
)
#> # A tibble: 110 × 5
#>    Species  .pred_bobcat .pred_coyote .pred_gray_fox .class_pred
#>    <fct>           <dbl>        <dbl>          <dbl>  <clss_prd>
#>  1 gray_fox       0.0976       0.0530         0.849     gray_fox
#>  2 gray_fox       0.155        0.139          0.706     gray_fox
#>  3 bobcat         0.501        0.0880         0.411       bobcat
#>  4 gray_fox       0.256        0              0.744     gray_fox
#>  5 gray_fox       0.463        0.287          0.250         [EQ]
#>  6 bobcat         0.811        0              0.189       bobcat
#>  7 bobcat         0.911        0.0888         0           bobcat
#>  8 bobcat         0.898        0.0517         0.0500      bobcat
#>  9 bobcat         0.771        0.229          0           bobcat
#> 10 bobcat         0.623        0.325          0.0517      bobcat
#> # ℹ 100 more rows
```
