Probability Calibration table — .cal_table_breaks • probably
…
.cal_table_logistic(
  segment_logistic,
  Class,
  .pred_good
)
#> # A tibble: 101 × 4
#>    estimate   prob  lower  upper
#>       <dbl>  <dbl>  <dbl>  <dbl>
#>  1     0    0.0219 0.0143 0.0335
#>  2     0.01 0.0246 0.0165 0.0365
#>  3     0.02 0.0276 0.0190 0.0399
#>  4     0.03 0.0310 0.0219 0.0437
#>  5     0.04 0.0347 0.0250 0.0479
#>  6     0.05 0.0389 0.0286 0.0527
#>  7     0.06 0.0435 0.0325 0.0580
#>  8     0.07 0.0487 0.0369 0.0640
#>  9     0.08 0.0544 0.0418 0.0706
#> 10     0.09 0.0608 0.0472 0.0780
#> # ℹ 91 more rows

.cal_table_windowed(
  segment_logistic,
  Class,
  .pred_good
)
#> # A tibble: 21 × 6
#>    predicted_midpoint event_rate events total  lower  upper
#>                 <dbl>      <dbl>  <dbl> <int>  <dbl>  <dbl>
#>  1              0.025     0.0233      6   258 0.0108 0.0468
#>  2              0.05      0.0350     12   343 0.0208 0.0570
#>  3              0.1       0.0559      8   143 0.0293 0.101 
#>  4              0.15      0.0841      9   107 0.0461 0.145 
#>  5              0.2       0.195      17    87 0.130  0.280 
#>  6              0.25      0.324      24    74 0.236  0.426 
#>  7              0.3       0.343      24    70 0.251  0.448 
#>  8              0.35      0.366      26    71 0.272  0.471 
#>  9              0.4       0.433      29    67 0.331  0.540 
#> 10              0.45      0.538      28    52 0.416  0.656 
#> # ℹ 11 more rows
…
