…
## Examples

``` r
# ------------------------------------------------------------------------------
# classification example

w_calibration <- cal_estimate_logistic(segment_logistic, Class)
#> Registered S3 method overwritten by 'butcher':
#>   method                 from    
#>   as.character.dev_topic generics

cal_apply(segment_logistic, w_calibration)
#> # A tibble: 1,010 × 3
#>    .pred_poor .pred_good Class
#>         <dbl>      <dbl> <fct>
#>  1      0.974     0.0258 poor 
#>  2      0.930     0.0700 poor 
#>  3      0.220     0.780  good 
#>  4      0.205     0.795  good 
#>  5      0.976     0.0244 poor 
#>  6      0.590     0.410  good 
#>  7      0.777     0.223  good 
#>  8      0.135     0.865  good 
#>  9      0.977     0.0231 poor 
#> 10      0.770     0.230  poor 
#> # ℹ 1,000 more rows
```
