…
# These functions are useful alongside dplyr::mutate()
segment_logistic |>
  mutate(
    .class_pred = make_two_class_pred(
      estimate = .pred_good,
      levels = levels(Class),
      buffer = 0.15
    )
  )
#> # A tibble: 1,010 × 4
#>    .pred_poor .pred_good Class .class_pred
#>         <dbl>      <dbl> <fct>  <clss_prd>
#>  1    0.986      0.0142  poor         poor
#>  2    0.897      0.103   poor         poor
#>  3    0.118      0.882   good         good
#>  4    0.102      0.898   good         good
#>  5    0.991      0.00914 poor         poor
#>  6    0.633      0.367   good         [EQ]
#>  7    0.770      0.230   good         poor
#>  8    0.00842    0.992   good         good
#>  9    0.995      0.00458 poor         poor
#> 10    0.765      0.235   poor         poor
#> # ℹ 1,000 more rows

# Multi-class example
# Note that we provide class probability columns in the same
# order as the levels
species_probs |>
  mutate(
    .class_pred = make_class_pred(
      .pred_bobcat, .pred_coyote, .pred_gray_fox,
      levels = levels(Species),
      min_prob = .5
    )
  )
#> # A tibble: 110 × 5
#>    Species  .pred_bobcat .pred_coyote .pred_gray_fox .class_pred
#>    <fct>           <dbl>        <dbl>          <dbl>  <clss_prd>
#>  1 gray_fox       0.0976       0.0530         0.849     gray_fox
#>  2 gray_fox       0.155        0.139          0.706     gray_fox
#>  3 bobcat         0.501        0.0880         0.411       bobcat
#>  4 gray_fox       0.256        0              0.744     gray_fox
#>  5 gray_fox       0.463        0.287          0.250         [EQ]
#>  6 bobcat         0.811        0              0.189       bobcat
#>  7 bobcat         0.911        0.0888         0           bobcat
#>  8 bobcat         0.898        0.0517         0.0500      bobcat
#>  9 bobcat         0.771        0.229          0           bobcat
#> 10 bobcat         0.623        0.325          0.0517      bobcat
#> # ℹ 100 more rows
```
