Generate performance metrics across probability thresholds — threshold_perf • probably
…
mock_resamples <- resamples %>%
  replicate(
    expr = sample_n(segment_logistic, 100, replace = TRUE),
    simplify = FALSE
  ) %>%
  bind_rows(.id = "resample")

resampled_threshold_perf <- mock_resamples %>%
  group_by(resample) %>%
  threshold_perf(Class, .pred_good, thresholds)

resampled_threshold_perf
#> # A tibble: 100 × 5
#>    resample .threshold .metric .estimator .estimate
#>    <chr>         <dbl> <chr>   <chr>          <dbl>
#>  1 1               0.5 sens    binary         0.655
#>  2 1               0.6 sens    binary         0.586
#>  3 1               0.7 sens    binary         0.448
#>  4 1               0.8 sens    binary         0.379
#>  5 1               0.9 sens    binary         0.207
#>  6 2               0.5 sens    binary         0.852
#>  7 2               0.6 sens    binary         0.778
#>  8 2               0.7 sens    binary         0.704
#>  9 2               0.8 sens    binary         0.519
#> 10 2               0.9 sens    binary         0.222
#> # … with 90 more rows
…
