…
mock_resamples <- resamples |>
  replicate(
    expr = sample_n(segment_logistic, 100, replace = TRUE),
    simplify = FALSE
  ) |>
  bind_rows(.id = "resample")

resampled_threshold_perf <- mock_resamples |>
  group_by(resample) |>
  threshold_perf(Class, .pred_good, thresholds)

resampled_threshold_perf
#> # A tibble: 100 × 5
#>    resample .threshold .metric     .estimator .estimate
#>    <chr>         <dbl> <chr>       <chr>          <dbl>
#>  1 1               0.5 sensitivity binary         0.711
#>  2 1               0.6 sensitivity binary         0.632
#>  3 1               0.7 sensitivity binary         0.579
#>  4 1               0.8 sensitivity binary         0.421
#>  5 1               0.9 sensitivity binary         0.316
#>  6 2               0.5 sensitivity binary         0.781
#>  7 2               0.6 sensitivity binary         0.625
#>  8 2               0.7 sensitivity binary         0.594
#>  9 2               0.8 sensitivity binary         0.469
#> 10 2               0.9 sensitivity binary         0.188
#> # ℹ 90 more rows
…
