Where does probably fit in? • probably
…
# I think it makes more sense to have "good" as the first level
# By default it comes as the second level
lending_club <- lending_club %>%
  mutate(Class = relevel(Class, "good"))

# There are a number of columns in this data set, but we will only use a few
# for this example
lending_club <- select(lending_club, Class, annual_inc, verification_status, sub_grade)

lending_club
#> # A tibble: 9,857 x 4
#>    Class annual_inc verification_status sub_grade
#>    <fct>      <dbl> <fct>               <fct>    
#>  1 good       35000 Not_Verified        C4       
#>  2 good       72000 Verified            C1       
#>  3 good       72000 Source_Verified     D1       
#>  4 good      101000 Verified            C3       
#>  5 good       50100 Source_Verified     A4       
#>  6 good       32000 Source_Verified     B5       
#>  7 good       65000 Not_Verified        A1       
#>  8 good      188000 Not_Verified        B2       
#>  9 good       89000 Source_Verified     B3       
#> 10 good       48000 Not_Verified        C2       
#> # … with 9,847 more rows
…
predictions <- logi_reg_fit %>%
  predict(new_data = lending_test, type = "prob")

head(predictions, n = 2)
#> # A tibble: 2 x 2
#>   .pred_good .pred_bad
#>        <dbl>     <dbl>
#> 1      0.969    0.0311
#> 2      0.965    0.0353

lending_test_pred <- bind_cols(predictions, lending_test)

lending_test_pred
#> # A tibble: 2,465 x 6
#>    .pred_good .pred_bad Class annual_inc verification_status sub_grade
#>         <dbl>     <dbl> <fct>      <dbl> <fct>               <fct>    
#>  1      0.969   0.0311  good       32000 Source_Verified     B5       
#>  2      0.965   0.0353  good       73400 Source_Verified     C2       
#>  3      0.960   0.0405  good      175000 Source_Verified     B5       
#>  4      0.972   0.0276  good       70000 Not_Verified        B4       
#>  5      0.874   0.126   good       36000 Source_Verified     E1       
#>  6      0.944   0.0560  good       40000 Source_Verified     C4       
#>  7      0.996   0.00385 good       60000 Not_Verified        A1       
#>  8      0.951   0.0486  good       65000 Verified            C1       
#>  9      0.963   0.0370  good       52000 Verified            B4       
#> 10      0.983   0.0173  good       61000 Verified            B2       
#> # … with 2,455 more rows
…
